%YAML 1.1
%TAG !u! tag:unity3d.com,2011:
--- !u!114 &11400000
MonoBehaviour:
  m_ObjectHideFlags: 0
  m_CorrespondingSourceObject: {fileID: 0}
  m_PrefabInstance: {fileID: 0}
  m_PrefabAsset: {fileID: 0}
  m_GameObject: {fileID: 0}
  m_Enabled: 1
  m_EditorHideFlags: 0
  m_Script: {fileID: 11500000, guid: bde2dee02b2d50a4791338979e85e57d, type: 3}
  m_Name: 1.1
  m_EditorClassIdentifier: 
  mapId: 1
  xPos: -18.58
  yPos: 0.61
  zPos: 25.6
